…
## Observations: 245
## Variables: 2
## $ NAME                  <chr> "Anderson", "Andrews", "Angelina", "Aran...
## $ confirmed_allegations <int> 278, 50, 323, 77, 13, 2, 221, 29, 17, 49...

confirmed_county_total %>%
    arrange(desc(confirmed_allegations)) 

## # A tibble: 245 x 2
##       NAME confirmed_allegations
##      <chr>                 <int>
##  1  Harris                  6638
##  2 Tarrant                  5648
##  3  Dallas                  5108
##  4   Bexar                  5082
##  5 El Paso                  2291
##  6  Travis                  2245
##  7 Hidalgo                  1522
##  8  Collin                  1362
##  9  Nueces                  1318
## 10 Cameron                  1281
## # ... with 235 more rows
…
