…
My suspicion is that this subset is unique on year and period.

series.01a%>%
    filter(series_id=='CES0000000001')

## # A tibble: 946 x 5
##        series_id  year period value footnote_codes
##            <chr> <int>  <chr> <int>          <chr>
##  1 CES0000000001  1939    M01 29923           <NA>
##  2 CES0000000001  1939    M02 30101           <NA>
##  3 CES0000000001  1939    M03 30280           <NA>
##  4 CES0000000001  1939    M04 30094           <NA>
##  5 CES0000000001  1939    M05 30300           <NA>
##  6 CES0000000001  1939    M06 30502           <NA>
##  7 CES0000000001  1939    M07 30419           <NA>
##  8 CES0000000001  1939    M08 30663           <NA>
##  9 CES0000000001  1939    M09 31032           <NA>
## 10 CES0000000001  1939    M10 31408           <NA>
## # ... with 936 more rows

series.01a%>%
    filter(series_id=='CES0000000001') %>%
    select(-footnote_codes) %>%
    group_by(series_id, year, period) %>%
    summarise_all(sum)

## # A tibble: 946 x 4
## # Groups:   series_id, year [?]
##        series_id  year period value
##            <chr> <int>  <chr> <int>
##  1 CES0000000001  1939    M01 29923
##  2 CES0000000001  1939    M02 30101
##  3 CES0000000001  1939    M03 30280
##  4 CES0000000001  1939    M04 30094
##  5 CES0000000001  1939    M05 30300
##  6 CES0000000001  1939    M06 30502
##  7 CES0000000001  1939    M07 30419
##  8 CES0000000001  1939    M08 30663
##  9 CES0000000001  1939    M09 31032
## 10 CES0000000001  1939    M10 31408
## # ... with 936 more rows
…
